2021-08-05 19:14:08.2+0000,-0.170,0.335,-0.927,3.60,-5.07
2021-08-05 19:14:09.2+0000,-0.171,0.336,-0.926,3.60,-5.07
2021-08-05 19:14:10.21+0000,-0.170,0.335,-0.927,3.60,-5.24
2021-08-05 19:14:11.2+0000,-0.171,0.336,-0.926,3.60,-5.24
2021-08-05 19:14:12.2+0000,-0.170,0.335,-0.927,3.60,-5.24
2021-08-05 19:14:13.2+0000,-0.170,0.335,-0.927,3.60,-4.90
2021-08-05 19:14:14.2+0000,-0.170,0.336,-0.926,3.60,-5.24
2021-08-05 19:14:15.21+0000,-0.169,0.336,-0.927,3.60,-5.07
2021-08-05 19:14:16.2+0000,-0.169,0.337,-0.926,3.60,-5.07
2021-08-05 19:14:17.2+0000,-0.169,0.337,-0.926,3.60,-5.24
2021-08-05 19:14:18.21+0000,-0.169,0.337,-0.926,3.60,-5.24
2021-08-05 19:14:19.2+0000,-0.169,0.336,-0.926,3.94,-4.56
2021-08-05 19:14:20.2+0000,-0.146,0.342,-0.928,3.60,-5.07
2021-08-05 19:14:21.21+0000,-0.116,0.350,-0.930,3.26,-5.24
2021-08-05 19:14:22.2+0000,-0.095,0.352,-0.931,3.26,-4.90
2021-08-05 19:14:23.2+0000,-0.073,0.351,-0.933,3.60,-5.24
2021-08-05 19:14:24.21+0000,-0.053,0.353,-0.934,3.26,-4.81
2021-08-05 19:14:25.2+0000,-0.022,0.352,-0.936,3.26,-4.90
2021-08-05 19:14:26.2+0000,-0.014,0.349,-0.937,3.26,-4.90
2021-08-05 19:14:27.21+0000,-0.001,0.350,-0.937,3.26,-4.90
2021-08-05 19:14:28.2+0000,-0.006,0.350,-0.937,3.43,-4.90
2021-08-05 19:14:29.21+0000,-0.002,0.350,-0.937,3.43,-4.90
2021-08-05 19:14:30.2+0000,-0.007,0.351,-0.936,3.26,-4.90
2021-08-05 19:14:31.2+0000,-0.007,0.350,-0.937,3.43,-4.90
2021-08-05 19:14:32.21+0000,-0.008,0.351,-0.936,3.60,-4.90
2021-08-05 19:14:33.2+0000,-0.009,0.351,-0.936,3.60,-4.90
2021-08-05 19:14:34.2+0000,-0.010,0.351,-0.936,3.60,-4.90
2021-08-05 19:14:35.21+0000,-0.011,0.352,-0.936,3.60,-4.90
2021-08-05 19:14:36.2+0000,-0.011,0.352,-0.936,3.60,-4.90
2021-08-05 19:14:37.2+0000,-0.012,0.352,-0.936,3.43,-4.28
2021-08-05 19:14:38.21+0000,-0.019,0.353,-0.935,3.77,-4.90
2021-08-05 19:14:39.2+0000,-0.017,0.354,-0.935,3.60,-5.24
2021-08-05 19:14:40.2+0000,-0.022,0.354,-0.935,3.60,-5.24
2021-08-05 19:14:41.2+0000,-0.024,0.355,-0.935,3.60,-5.24
2021-08-05 19:14:42.2+0000,-0.025,0.354,-0.935,3.60,-4.90
2021-08-05 19:14:43.21+0000,-0.027,0.353,-0.935,3.60,-4.90
2021-08-05 19:14:44.2+0000,-0.024,0.353,-0.935,3.60,-4.90
2021-08-05 19:14:45.2+0000,-0.029,0.353,-0.935,3.60,-4.90
2021-08-05 19:14:46.21+0000,-0.038,0.355,-0.934,3.60,-4.90
2021-08-05 19:14:47.2+0000,-0.053,0.353,-0.934,3.60,-4.90
2021-08-05 19:14:48.2+0000,-0.051,0.354,-0.934,3.60,-5.24
2021-08-05 19:14:49.21+0000,-0.071,0.356,-0.932,3.60,-5.24
2021-08-05 19:14:50.2+0000,-0.102,0.351,-0.931,3.60,-5.07
2021-08-05 19:14:51.2+0000,-0.117,0.350,-0.929,3.60,-5.07
2021-08-05 19:14:52.2+0000,-0.112,0.352,-0.929,3.60,-5.24
2021-08-05 19:14:53.2+0000,-0.108,0.351,-0.930,3.60,-5.24
2021-08-05 19:14:54.21+0000,-0.115,0.351,-0.929,3.60,-4.90
2021-08-05 19:14:55.2+0000,-0.118,0.351,-0.929,3.60,-5.24
2021-08-05 19:14:56.2+0000,-0.118,0.350,-0.929,3.60,-5.24
2021-08-05 19:14:57.21+0000,-0.117,0.351,-0.929,3.60,-5.07
2021-08-05 19:14:58.2+0000,-0.115,0.350,-0.929,3.60,-5.24
2021-08-05 19:14:59.2+0000,-0.116,0.350,-0.929,3.60,-5.24
2021-08-05 19:15:00.2+0000,-0.117,0.351,-0.929,3.60,-5.24
2021-08-05 19:15:01.2+0000,-0.117,0.349,-0.930,3.60,-5.24
2021-08-05 19:15:02.21+0000,-0.117,0.350,-0.929,3.60,-5.07
2021-08-05 19:15:03.2+0000,-0.117,0.348,-0.930,3.60,-5.07
2021-08-05 19:15:04.2+0000,-0.117,0.348,-0.930,3.60,-5.24
2021-08-05 19:15:05.21+0000,-0.119,0.348,-0.930,3.60,-5.07
2021-08-05 19:15:06.2+0000,-0.117,0.347,-0.930,3.60,-5.24
2021-08-05 19:15:07.2+0000,-0.118,0.348,-0.930,3.60,-5.24
2021-08-05 19:15:08.21+0000,-0.118,0.348,-0.930,3.60,-4.90
2021-08-05 19:15:09.2+0000,-0.117,0.347,-0.930,3.60,-5.07
2021-08-05 19:15:10.21+0000,-0.119,0.349,-0.929,3.60,-5.07
2021-08-05 19:15:11.2+0000,-0.116,0.350,-0.930,3.60,-5.24
2021-08-05 19:15:12.2+0000,-0.116,0.350,-0.929,3.60,-5.07
2021-08-05 19:15:13.21+0000,-0.117,0.351,-0.929,3.60,-5.24
2021-08-05 19:15:14.2+0000,-0.117,0.349,-0.930,3.60,-5.24
2021-08-05 19:15:15.2+0000,-0.117,0.350,-0.929,3.60,-5.07
2021-08-05 19:15:16.21+0000,-0.118,0.349,-0.930,3.60,-5.24
2021-08-05 19:15:17.2+0000,-0.125,0.347,-0.929,3.60,-5.24
2021-08-05 19:15:18.2+0000,-0.137,0.345,-0.928,3.60,-5.24
2021-08-05 19:15:19.2+0000,-0.157,0.339,-0.928,3.60,-5.24
2021-08-05 19:15:20.2+0000,-0.174,0.335,-0.926,3.60,-4.90
2021-08-05 19:15:21.2+0000,-0.188,0.330,-0.925,3.60,-5.24
2021-08-05 19:15:22.2+0000,-0.192,0.328,-0.925,3.60,-5.07
2021-08-05 19:15:23.2+0000,-0.209,0.321,-0.924,3.60,-4.90
2021-08-05 19:15:24.21+0000,-0.246,0.298,-0.922,3.60,-5.07
2021-08-05 19:15:25.2+0000,-0.277,0.275,-0.921,3.60,-5.07
2021-08-05 19:15:26.2+0000,-0.300,0.254,-0.920,3.60,-4.90
2021-08-05 19:15:27.21+0000,-0.306,0.247,-0.919,3.60,-4.90
2021-08-05 19:15:28.2+0000,-0.303,0.249,-0.920,3.60,-5.24
2021-08-05 19:15:29.21+0000,-0.307,0.246,-0.919,3.60,-4.90
2021-08-05 19:15:30.2+0000,-0.307,0.247,-0.919,3.60,-4.90
2021-08-05 19:15:31.2+0000,-0.302,0.252,-0.919,3.60,-4.90
2021-08-05 19:15:32.21+0000,-0.302,0.252,-0.919,3.60,-5.07
2021-08-05 19:15:33.2+0000,-0.306,0.248,-0.919,3.60,-5.24
2021-08-05 19:15:34.2+0000,-0.303,0.251,-0.920,3.60,-5.07
2021-08-05 19:15:35.21+0000,-0.303,0.249,-0.920,3.60,-5.07
2021-08-05 19:15:36.2+0000,-0.305,0.248,-0.919,3.60,-4.90
2021-08-05 19:15:37.21+0000,-0.305,0.249,-0.919,3.60,-4.90
2021-08-05 19:15:38.2+0000,-0.306,0.248,-0.919,3.60,-5.24
2021-08-05 19:15:39.2+0000,-0.307,0.247,-0.919,3.60,-4.90
2021-08-05 19:15:40.21+0000,-0.305,0.248,-0.919,3.60,-5.24
2021-08-05 19:15:41.2+0000,-0.306,0.247,-0.919,3.60,-5.07
2021-08-05 19:15:42.2+0000,-0.305,0.247,-0.919,3.60,-4.90
2021-08-05 19:15:43.21+0000,-0.306,0.247,-0.919,3.60,-5.07
2021-08-05 19:15:44.2+0000,-0.308,0.245,-0.919,3.60,-4.90
2021-08-05 19:15:45.21+0000,-0.317,0.234,-0.919,3.60,-4.90
2021-08-05 19:15:46.2+0000,-0.334,0.213,-0.918,3.60,-5.24
2021-08-05 19:15:47.2+0000,-0.352,0.178,-0.919,3.60,-4.90
2021-08-05 19:15:48.21+0000,-0.364,0.156,-0.918,3.60,-4.82
2021-08-05 19:15:49.2+0000,-0.366,0.151,-0.918,3.60,-5.24
2021-08-05 19:15:50.2+0000,-0.378,0.102,-0.920,3.60,-5.07
2021-08-05 19:15:51.21+0000,-0.387,0.050,-0.921,3.60,-4.90
2021-08-05 19:15:52.2+0000,-0.386,0.041,-0.922,3.60,-5.07
2021-08-05 19:15:53.2+0000,-0.385,0.016,-0.923,3.60,-4.90
2021-08-05 19:15:54.21+0000,-0.383,-0.008,-0.924,3.60,-4.90
2021-08-05 19:15:55.2+0000,-0.382,-0.009,-0.924,3.60,-4.90
2021-08-05 19:15:56.2+0000,-0.384,-0.007,-0.923,3.60,-4.90
2021-08-05 19:15:57.21+0000,-0.383,-0.008,-0.924,3.60,-4.90
2021-08-05 19:15:58.2+0000,-0.383,-0.008,-0.924,3.60,-4.90
2021-08-05 19:15:59.21+0000,-0.382,-0.008,-0.924,3.60,-4.90
2021-08-05 19:16:00.2+0000,-0.382,-0.009,-0.924,3.60,-4.90
2021-08-05 19:16:01.2+0000,-0.382,-0.007,-0.924,3.60,-4.90
2021-08-05 19:16:02.21+0000,-0.381,-0.008,-0.924,3.60,-4.90
2021-08-05 19:16:03.2+0000,-0.382,-0.007,-0.924,3.60,-4.90
2021-08-05 19:16:04.2+0000,-0.381,-0.008,-0.924,3.60,-4.90
2021-08-05 19:16:05.21+0000,-0.383,-0.007,-0.924,3.60,-4.90
2021-08-05 19:16:06.2+0000,-0.384,-0.010,-0.923,3.60,-4.90
2021-08-05 19:16:07.2+0000,-0.384,-0.006,-0.923,3.60,-4.90
2021-08-05 19:16:08.2+0000,-0.386,-0.003,-0.923,3.60,-4.90
2021-08-05 19:16:09.2+0000,-0.384,-0.017,-0.923,3.60,-4.90
2021-08-05 19:16:10.21+0000,-0.383,-0.018,-0.923,3.94,-4.90
2021-08-05 19:16:11.2+0000,-0.389,-0.028,-0.921,3.60,-4.90
2021-08-05 19:16:12.2+0000,-0.374,-0.062,-0.925,3.60,-4.90
2021-08-05 19:16:13.21+0000,-0.352,-0.113,-0.929,3.60,-4.90
2021-08-05 19:16:14.2+0000,-0.340,-0.144,-0.929,3.26,-4.90
2021-08-05 19:16:15.2+0000,-0.305,-0.187,-0.934,3.60,-4.90
2021-08-05 19:16:16.21+0000,-0.294,-0.201,-0.934,3.43,-4.90
2021-08-05 19:16:17.2+0000,-0.268,-0.228,-0.936,3.43,-4.90
2021-08-05 19:16:18.2+0000,-0.242,-0.245,-0.939,3.94,-4.73
2021-08-05 19:16:19.2+0000,-0.264,-0.232,-0.936,3.26,-4.90
2021-08-05 19:16:20.2+0000,-0.265,-0.233,-0.936,3.60,-4.90
2021-08-05 19:16:21.21+0000,-0.262,-0.230,-0.937,3.60,-4.90
2021-08-05 19:16:22.2+0000,-0.266,-0.232,-0.936,3.60,-4.90
2021-08-05 19:16:23.2+0000,-0.263,-0.232,-0.936,3.60,-4.90
2021-08-05 19:16:24.21+0000,-0.262,-0.232,-0.937,3.60,-4.90
2021-08-05 19:16:25.2+0000,-0.264,-0.232,-0.936,3.60,-4.90
2021-08-05 19:16:26.2+0000,-0.262,-0.231,-0.937,3.60,-4.90
2021-08-05 19:16:27.21+0000,-0.263,-0.232,-0.937,3.60,-4.90
2021-08-05 19:16:28.2+0000,-0.263,-0.231,-0.937,3.60,-4.90
2021-08-05 19:16:29.21+0000,-0.262,-0.231,-0.937,3.60,-4.90
2021-08-05 19:16:30.2+0000,-0.263,-0.233,-0.936,3.60,-4.90
2021-08-05 19:16:31.2+0000,-0.263,-0.232,-0.936,3.60,-4.90
2021-08-05 19:16:32.21+0000,-0.263,-0.232,-0.936,3.60,-4.90
2021-08-05 19:16:33.2+0000,-0.263,-0.233,-0.936,3.60,-4.90
2021-08-05 19:16:34.2+0000,-0.266,-0.229,-0.936,3.60,-4.90
2021-08-05 19:16:35.21+0000,-0.283,-0.214,-0.935,3.60,-4.90
2021-08-05 19:16:36.2+0000,-0.280,-0.218,-0.935,3.94,-4.90
2021-08-05 19:16:37.2+0000,-0.297,-0.190,-0.936,3.26,-5.24
2021-08-05 19:16:38.21+0000,-0.267,-0.231,-0.936,3.26,-5.24
2021-08-05 19:16:39.2+0000,-0.221,-0.259,-0.940,3.60,-4.90
2021-08-05 19:16:40.21+0000,-0.179,-0.287,-0.941,3.26,-5.24
2021-08-05 19:16:41.2+0000,-0.130,-0.304,-0.944,3.26,-5.24
2021-08-05 19:16:42.2+0000,-0.073,-0.316,-0.946,3.43,-5.24
2021-08-05 19:16:43.2+0000,-0.037,-0.325,-0.945,3.26,-5.59
2021-08-05 19:16:44.2+0000,0.044,-0.313,-0.949,3.60,-4.90
2021-08-05 19:16:45.2+0000,0.093,-0.302,-0.949,3.43,-5.24
2021-08-05 19:16:46.21+0000,0.150,-0.278,-0.949,3.94,-4.90
2021-08-05 19:16:47.2+0000,0.127,-0.284,-0.950,3.26,-5.24
2021-08-05 19:16:48.21+0000,0.124,-0.292,-0.948,3.43,-5.24
2021-08-05 19:16:49.2+0000,0.124,-0.288,-0.950,3.60,-4.90
2021-08-05 19:16:50.2+0000,0.121,-0.292,-0.949,3.26,-5.24
2021-08-05 19:16:51.21+0000,0.119,-0.293,-0.949,3.43,-5.24
2021-08-05 19:16:52.2+0000,0.117,-0.292,-0.949,3.60,-5.07
2021-08-05 19:16:53.2+0000,0.116,-0.294,-0.949,3.43,-5.24
2021-08-05 19:16:54.21+0000,0.113,-0.294,-0.949,3.60,-4.90
2021-08-05 19:16:55.2+0000,0.113,-0.293,-0.949,3.60,-5.07
2021-08-05 19:16:56.2+0000,0.109,-0.295,-0.949,3.43,-4.90
2021-08-05 19:16:57.21+0000,0.112,-0.293,-0.950,3.60,-5.24
2021-08-05 19:16:58.2+0000,0.111,-0.295,-0.949,3.60,-5.24
2021-08-05 19:16:59.21+0000,0.110,-0.293,-0.950,3.43,-5.07
2021-08-05 19:17:00.2+0000,0.110,-0.294,-0.949,3.60,-5.07
2021-08-05 19:17:01.2+0000,0.088,-0.303,-0.949,3.26,-4.90
2021-08-05 19:17:02.21+0000,0.087,-0.305,-0.948,3.60,-4.90
2021-08-05 19:17:03.2+0000,0.105,-0.301,-0.948,3.77,-5.07
2021-08-05 19:17:04.2+0000,0.085,-0.300,-0.950,3.60,-4.56
2021-08-05 19:17:05.21+0000,0.084,-0.307,-0.948,3.26,-5.24
2021-08-05 19:17:06.2+0000,0.155,-0.267,-0.951,3.43,-4.90
2021-08-05 19:17:07.2+0000,0.231,-0.201,-0.952,3.60,-4.73
2021-08-05 19:17:08.21+0000,0.264,-0.152,-0.952,3.26,-4.90
2021-08-05 19:17:09.2+0000,0.284,-0.103,-0.953,3.43,-4.90
2021-08-05 19:17:10.21+0000,0.298,-0.059,-0.953,3.60,-4.90
2021-08-05 19:17:11.2+0000,0.300,-0.020,-0.954,3.35,-4.90
2021-08-05 19:17:12.2+0000,0.301,-0.007,-0.954,3.43,-4.90
2021-08-05 19:17:13.21+0000,0.301,-0.015,-0.954,3.60,-4.90
2021-08-05 19:17:14.2+0000,0.298,-0.017,-0.954,3.60,-4.90
2021-08-05 19:17:15.2+0000,0.301,-0.025,-0.953,3.60,-4.73
2021-08-05 19:17:16.21+0000,0.300,-0.027,-0.954,3.60,-4.90
2021-08-05 19:17:17.2+0000,0.296,-0.052,-0.954,3.60,-4.90
2021-08-05 19:17:18.2+0000,0.296,-0.053,-0.954,3.60,-4.73
2021-08-05 19:17:19.21+0000,0.293,-0.070,-0.954,3.60,-4.90
2021-08-05 19:17:20.2+0000,0.292,-0.083,-0.953,3.60,-4.90
2021-08-05 19:17:21.2+0000,0.290,-0.081,-0.954,3.26,-4.90
2021-08-05 19:17:22.21+0000,0.279,-0.117,-0.953,3.26,-4.90
2021-08-05 19:17:23.2+0000,0.266,-0.154,-0.952,3.60,-4.73
2021-08-05 19:17:24.2+0000,0.252,-0.172,-0.952,3.43,-4.90
2021-08-05 19:17:25.21+0000,0.254,-0.173,-0.952,3.26,-4.90
2021-08-05 19:17:26.2+0000,0.255,-0.171,-0.952,3.43,-4.90
2021-08-05 19:17:27.21+0000,0.254,-0.173,-0.952,3.60,-4.82
2021-08-05 19:17:28.2+0000,0.252,-0.176,-0.952,3.60,-4.90
2021-08-05 19:17:29.2+0000,0.248,-0.179,-0.952,3.43,-4.73
2021-08-05 19:17:30.21+0000,0.247,-0.183,-0.952,3.60,-4.73
2021-08-05 19:17:31.2+0000,0.245,-0.185,-0.952,3.60,-4.90
2021-08-05 19:17:32.2+0000,0.241,-0.189,-0.952,3.60,-4.90
2021-08-05 19:17:33.21+0000,0.240,-0.192,-0.952,3.60,-4.90
2021-08-05 19:17:34.2+0000,0.239,-0.193,-0.952,3.60,-4.90
2021-08-05 19:17:35.21+0000,0.239,-0.194,-0.952,3.60,-4.90
2021-08-05 19:17:36.2+0000,0.238,-0.195,-0.952,3.60,-4.90
2021-08-05 19:17:37.2+0000,0.238,-0.194,-0.952,3.43,-4.90
2021-08-05 19:17:38.21+0000,0.239,-0.195,-0.951,3.60,-4.90
2021-08-05 19:17:39.2+0000,0.237,-0.194,-0.952,3.60,-4.90
2021-08-05 19:17:40.2+0000,0.239,-0.194,-0.951,3.60,-4.90
2021-08-05 19:17:41.21+0000,0.237,-0.195,-0.952,3.60,-4.90
2021-08-05 19:17:42.2+0000,0.233,-0.200,-0.952,3.43,-4.90
2021-08-05 19:17:43.21+0000,0.233,-0.200,-0.952,3.60,-4.90
2021-08-05 19:17:44.21+0000,0.234,-0.198,-0.952,3.43,-4.90
2021-08-05 19:17:45.2+0000,0.234,-0.198,-0.952,3.26,-4.90
2021-08-05 19:17:46.21+0000,0.225,-0.209,-0.952,2.92,-5.42
2021-08-05 19:17:47.2+0000,0.261,-0.153,-0.953,3.60,-4.56
2021-08-05 19:17:48.2+0000,0.274,-0.125,-0.954,3.60,-4.90
2021-08-05 19:17:49.21+0000,0.289,-0.082,-0.954,3.60,-4.90
2021-08-05 19:17:50.2+0000,0.297,-0.022,-0.955,3.60,-4.90
2021-08-05 19:17:51.2+0000,0.300,0.007,-0.954,3.60,-4.90
2021-08-05 19:17:52.21+0000,0.297,0.037,-0.954,3.94,-4.56
2021-08-05 19:17:53.2+0000,0.300,0.014,-0.954,3.94,-4.81
2021-08-05 19:17:54.21+0000,0.297,0.004,-0.955,3.60,-4.82
2021-08-05 19:17:55.2+0000,0.299,0.007,-0.954,3.60,-4.90
2021-08-05 19:17:56.2+0000,0.298,0.002,-0.954,3.60,-4.73
2021-08-05 19:17:57.21+0000,0.298,0.000,-0.955,3.60,-4.90
2021-08-05 19:17:58.2+0000,0.298,-0.000,-0.954,3.60,-4.73
2021-08-05 19:17:59.2+0000,0.298,-0.003,-0.955,3.60,-4.90
2021-08-05 19:18:00.21+0000,0.298,-0.002,-0.955,3.60,-4.90
2021-08-05 19:18:01.2+0000,0.298,-0.001,-0.955,3.60,-4.90
2021-08-05 19:18:02.21+0000,0.298,-0.002,-0.955,3.60,-4.90
2021-08-05 19:18:03.2+0000,0.298,-0.004,-0.955,3.60,-4.90
2021-08-05 19:18:04.2+0000,0.299,-0.004,-0.954,3.60,-4.73
2021-08-05 19:18:05.21+0000,0.298,-0.006,-0.955,3.60,-4.90
2021-08-05 19:18:06.2+0000,0.299,-0.005,-0.954,3.60,-4.56
2021-08-05 19:18:07.2+0000,0.300,-0.006,-0.954,3.60,-4.90
2021-08-05 19:18:08.21+0000,0.300,-0.005,-0.954,3.60,-4.90
2021-08-05 19:18:09.2+0000,0.300,-0.006,-0.954,3.60,-4.90
2021-08-05 19:18:10.2+0000,0.300,-0.006,-0.954,3.60,-4.73
2021-08-05 19:18:11.2+0000,0.300,-0.002,-0.954,3.60,-4.56
2021-08-05 19:18:12.2+0000,0.300,0.025,-0.954,3.60,-4.90
2021-08-05 19:18:13.21+0000,0.292,0.080,-0.953,3.60,-4.56
2021-08-05 19:18:14.2+0000,0.278,0.128,-0.952,3.60,-4.73
2021-08-05 19:18:15.2+0000,0.257,0.172,-0.951,3.43,-4.90
2021-08-05 19:18:16.21+0000,0.233,0.208,-0.950,3.60,-4.73
2021-08-05 19:18:17.2+0000,0.208,0.236,-0.949,3.43,-4.73
2021-08-05 19:18:18.2+0000,0.172,0.271,-0.947,3.26,-4.56
2021-08-05 19:18:19.21+0000,0.166,0.275,-0.947,3.26,-4.56
2021-08-05 19:18:20.2+0000,0.171,0.266,-0.949,3.60,-4.56
2021-08-05 19:18:21.21+0000,0.172,0.269,-0.948,3.26,-4.56
2021-08-05 19:18:22.2+0000,0.173,0.267,-0.948,3.60,-4.56
2021-08-05 19:18:23.2+0000,0.172,0.267,-0.948,3.43,-4.56
2021-08-05 19:18:24.21+0000,0.175,0.266,-0.948,3.60,-4.56
2021-08-05 19:18:25.2+0000,0.176,0.263,-0.949,3.26,-4.56
2021-08-05 19:18:26.2+0000,0.177,0.264,-0.948,3.60,-4.56
2021-08-05 19:18:27.21+0000,0.177,0.262,-0.949,3.43,-4.56
2021-08-05 19:18:28.2+0000,0.177,0.261,-0.949,3.43,-4.56
2021-08-05 19:18:29.2+0000,0.177,0.262,-0.949,3.60,-4.56
2021-08-05 19:18:30.21+0000,0.176,0.263,-0.949,3.60,-4.56
2021-08-05 19:18:31.2+0000,0.177,0.262,-0.949,3.60,-4.56
2021-08-05 19:18:32.2+0000,0.178,0.260,-0.949,3.60,-4.56
2021-08-05 19:18:33.2+0000,0.177,0.261,-0.949,3.60,-4.56
2021-08-05 19:18:34.2+0000,0.177,0.261,-0.949,3.60,-4.56
2021-08-05 19:18:35.21+0000,0.176,0.261,-0.949,3.60,-4.56
2021-08-05 19:18:36.2+0000,0.176,0.262,-0.949,3.60,-4.56
2021-08-05 19:18:37.2+0000,0.177,0.262,-0.949,3.60,-4.56
2021-08-05 19:18:38.21+0000,0.176,0.262,-0.949,3.60,-4.56
2021-08-05 19:18:39.2+0000,0.174,0.263,-0.949,3.60,-4.56
2021-08-05 19:18:40.2+0000,0.174,0.263,-0.949,3.60,-4.56
2021-08-05 19:18:41.21+0000,0.175,0.263,-0.949,3.60,-4.56
2021-08-05 19:18:42.2+0000,0.174,0.265,-0.948,3.43,-4.73
2021-08-05 19:18:43.2+0000,0.151,0.282,-0.947,3.43,-4.56
2021-08-05 19:18:44.2+0000,0.139,0.292,-0.946,3.26,-4.90
2021-08-05 19:18:45.2+0000,0.112,0.311,-0.944,3.60,-4.56
2021-08-05 19:18:46.21+0000,0.080,0.323,-0.943,3.60,-4.73
2021-08-05 19:18:47.2+0000,0.045,0.335,-0.941,3.26,-4.56
2021-08-05 19:18:48.2+0000,0.026,0.341,-0.940,3.43,-4.56
2021-08-05 19:18:49.21+0000,-0.011,0.346,-0.938,3.43,-4.56
2021-08-05 19:18:50.2+0000,-0.033,0.348,-0.937,3.60,-4.56
2021-08-05 19:18:51.2+0000,-0.051,0.348,-0.936,3.26,-4.56
2021-08-05 19:18:52.21+0000,-0.064,0.349,-0.935,3.60,-4.56
2021-08-05 19:18:53.2+0000,-0.089,0.346,-0.934,3.77,-4.56
2021-08-05 19:18:54.2+0000,-0.103,0.348,-0.932,3.60,-4.56
2021-08-05 19:18:55.21+0000,-0.120,0.343,-0.932,3.60,-4.56
2021-08-05 19:18:56.2+0000,-0.141,0.338,-0.931,3.94,-4.22
2021-08-05 19:18:57.21+0000,-0.157,0.333,-0.930,3.94,-4.22
2021-08-05 19:18:58.2+0000,-0.161,0.330,-0.930,3.77,-4.22
2021-08-05 19:18:59.2+0000,-0.162,0.331,-0.930,3.60,-4.22
2021-08-05 19:19:00.21+0000,-0.161,0.332,-0.929,3.77,-4.22
2021-08-05 19:19:01.2+0000,-0.153,0.331,-0.931,3.26,-4.56
2021-08-05 19:19:02.2+0000,-0.156,0.332,-0.930,3.60,-4.22
