2022-07-08 17:32:24.66+0000,-0.354,0.093,-0.930,-1.78,8.77
2022-07-08 17:32:25.67+0000,-0.354,0.093,-0.930,-0.52,-0.46
2022-07-08 17:32:26.67+0000,-0.354,0.093,-0.930,-0.52,-0.29
2022-07-08 17:32:27.67+0000,-0.354,0.093,-0.930,-0.52,-0.29
2022-07-08 17:32:28.66+0000,-0.354,0.093,-0.930,-0.52,-0.46
2022-07-08 17:32:29.66+0000,-0.354,0.093,-0.930,-0.52,-0.63
2022-07-08 17:32:30.66+0000,-0.354,0.093,-0.930,-0.44,-0.29
2022-07-08 17:32:31.66+0000,-0.354,0.092,-0.931,-0.52,-0.29
2022-07-08 17:32:32.66+0000,-0.354,0.093,-0.930,-0.52,-0.37
2022-07-08 17:32:33.66+0000,-0.354,0.092,-0.930,-0.52,-0.46
2022-07-08 17:32:34.66+0000,-0.354,0.093,-0.930,-0.44,-0.37
2022-07-08 17:32:35.66+0000,-0.354,0.093,-0.930,-0.52,-0.29
2022-07-08 17:32:36.67+0000,-0.354,0.093,-0.930,-0.52,-0.46
2022-07-08 17:32:37.67+0000,-0.354,0.093,-0.931,-0.52,-0.29
2022-07-08 17:32:38.66+0000,-0.355,0.093,-0.930,-0.52,-0.54
2022-07-08 17:32:39.66+0000,-0.354,0.093,-0.931,-0.52,-0.46
2022-07-08 17:32:40.66+0000,-0.354,0.093,-0.930,-0.52,-0.29
2022-07-08 17:32:41.66+0000,-0.354,0.093,-0.930,-0.44,-0.29
2022-07-08 17:32:42.67+0000,-0.354,0.093,-0.930,-0.52,-0.37
2022-07-08 17:32:43.67+0000,-0.362,0.075,-0.929,-0.52,-0.63
2022-07-08 17:32:44.67+0000,-0.373,0.040,-0.927,-0.52,-0.46
2022-07-08 17:32:45.66+0000,-0.383,-0.019,-0.923,-0.52,-0.29
2022-07-08 17:32:46.66+0000,-0.382,-0.093,-0.919,-0.52,-0.29
2022-07-08 17:32:47.66+0000,-0.373,-0.142,-0.917,-0.52,-0.29
2022-07-08 17:32:48.66+0000,-0.359,-0.185,-0.915,0.15,1.04
2022-07-08 17:32:49.66+0000,-0.359,-0.184,-0.915,-0.52,0.04
2022-07-08 17:32:50.66+0000,-0.359,-0.184,-0.915,-0.52,-0.29
2022-07-08 17:32:51.66+0000,-0.359,-0.184,-0.915,-0.18,-0.29
2022-07-08 17:32:52.67+0000,-0.359,-0.184,-0.915,-0.44,-0.29
2022-07-08 17:32:53.67+0000,-0.359,-0.184,-0.915,-0.52,-0.13
2022-07-08 17:32:54.67+0000,-0.359,-0.184,-0.915,-0.35,-0.29
2022-07-08 17:32:55.66+0000,-0.359,-0.183,-0.915,-0.52,-0.29
2022-07-08 17:32:56.66+0000,-0.359,-0.183,-0.915,-0.52,-0.29
2022-07-08 17:32:57.66+0000,-0.359,-0.183,-0.915,-0.52,-0.29
2022-07-08 17:32:58.67+0000,-0.359,-0.183,-0.915,-0.52,-0.29
2022-07-08 17:32:59.67+0000,-0.359,-0.184,-0.915,-0.52,-0.29
2022-07-08 17:33:00.67+0000,-0.359,-0.184,-0.915,-0.52,-0.29
2022-07-08 17:33:01.67+0000,-0.359,-0.183,-0.915,-0.52,-0.29
2022-07-08 17:33:02.67+0000,-0.357,-0.189,-0.915,-0.52,-0.29
2022-07-08 17:33:03.67+0000,-0.323,-0.252,-0.912,-0.52,-0.29
2022-07-08 17:33:04.67+0000,-0.267,-0.318,-0.910,-0.52,0.04
2022-07-08 17:33:05.66+0000,-0.213,-0.361,-0.908,-0.52,-0.37
2022-07-08 17:33:06.66+0000,-0.162,-0.388,-0.908,-0.52,0.04
2022-07-08 17:33:07.67+0000,-0.161,-0.388,-0.908,-0.52,0.04
2022-07-08 17:33:08.67+0000,-0.162,-0.388,-0.907,-0.52,-0.29
2022-07-08 17:33:09.67+0000,-0.162,-0.387,-0.908,-0.52,-0.04
2022-07-08 17:33:10.67+0000,-0.162,-0.387,-0.908,-0.52,0.04
2022-07-08 17:33:11.66+0000,-0.162,-0.388,-0.908,-0.44,-0.13
2022-07-08 17:33:12.66+0000,-0.162,-0.387,-0.908,-0.52,0.04
2022-07-08 17:33:13.66+0000,-0.162,-0.387,-0.908,-0.52,0.04
2022-07-08 17:33:14.66+0000,-0.162,-0.388,-0.907,-0.52,0.04
2022-07-08 17:33:15.67+0000,-0.162,-0.388,-0.907,-0.52,0.04
2022-07-08 17:33:16.67+0000,-0.162,-0.388,-0.907,-0.52,0.04
2022-07-08 17:33:17.67+0000,-0.162,-0.388,-0.907,-0.44,0.04
2022-07-08 17:33:18.67+0000,-0.162,-0.388,-0.907,-0.52,0.04
2022-07-08 17:33:19.67+0000,-0.162,-0.388,-0.908,-0.52,0.04
2022-07-08 17:33:20.66+0000,-0.162,-0.388,-0.908,-0.52,0.04
2022-07-08 17:33:21.66+0000,-0.162,-0.388,-0.907,-0.52,0.04
2022-07-08 17:33:22.66+0000,-0.162,-0.388,-0.908,-0.52,0.04
2022-07-08 17:33:23.66+0000,-0.161,-0.388,-0.908,-0.52,0.04
2022-07-08 17:33:24.67+0000,-0.162,-0.388,-0.908,-0.52,0.04
2022-07-08 17:33:25.67+0000,-0.162,-0.388,-0.908,-0.52,0.04
2022-07-08 17:33:26.67+0000,-0.162,-0.388,-0.908,-0.52,0.04
2022-07-08 17:33:27.66+0000,-0.162,-0.388,-0.907,-0.52,0.04
2022-07-08 17:33:28.66+0000,-0.162,-0.388,-0.907,-0.52,0.04
2022-07-08 17:33:29.66+0000,-0.162,-0.388,-0.907,-0.52,0.04
2022-07-08 17:33:30.66+0000,-0.162,-0.388,-0.907,-0.52,0.04
2022-07-08 17:33:31.67+0000,-0.162,-0.388,-0.907,-0.52,0.04
2022-07-08 17:33:32.67+0000,-0.162,-0.388,-0.907,-0.52,0.04
2022-07-08 17:33:33.67+0000,-0.162,-0.387,-0.908,-0.52,0.04
2022-07-08 17:33:34.67+0000,-0.162,-0.387,-0.908,-0.52,0.04
2022-07-08 17:33:35.67+0000,-0.162,-0.388,-0.907,-0.52,0.04
2022-07-08 17:33:36.66+0000,-0.162,-0.388,-0.907,-0.52,0.04
2022-07-08 17:33:37.66+0000,-0.162,-0.388,-0.908,-0.52,0.21
2022-07-08 17:33:38.67+0000,-0.162,-0.388,-0.907,-0.52,0.04
2022-07-08 17:33:39.67+0000,-0.162,-0.388,-0.907,-0.52,0.04
2022-07-08 17:33:40.67+0000,-0.162,-0.388,-0.907,-0.44,0.04
2022-07-08 17:33:41.66+0000,-0.162,-0.388,-0.907,-0.52,0.04
2022-07-08 17:33:42.66+0000,-0.162,-0.388,-0.908,-0.52,0.04
2022-07-08 17:33:43.66+0000,-0.162,-0.388,-0.907,-0.52,0.04
2022-07-08 17:33:44.67+0000,-0.161,-0.388,-0.908,-0.52,0.04
2022-07-08 17:33:45.67+0000,-0.099,-0.409,-0.907,-0.52,0.04
2022-07-08 17:33:46.67+0000,0.013,-0.419,-0.908,-0.52,0.04
2022-07-08 17:33:47.67+0000,0.092,-0.406,-0.909,-0.52,0.04
2022-07-08 17:33:48.67+0000,0.125,-0.396,-0.910,-0.18,1.04
2022-07-08 17:33:49.67+0000,0.124,-0.396,-0.910,-0.52,0.21
2022-07-08 17:33:50.66+0000,0.124,-0.396,-0.910,-0.52,0.04
2022-07-08 17:33:51.66+0000,0.124,-0.396,-0.910,-0.52,-0.13
2022-07-08 17:33:52.67+0000,0.124,-0.395,-0.910,-0.52,0.04
2022-07-08 17:33:53.67+0000,0.124,-0.396,-0.910,-0.52,0.04
2022-07-08 17:33:54.67+0000,0.124,-0.396,-0.910,-0.52,0.04
2022-07-08 17:33:55.67+0000,0.124,-0.396,-0.910,-0.69,0.04
2022-07-08 17:33:56.66+0000,0.124,-0.396,-0.910,-0.61,0.04
2022-07-08 17:33:57.67+0000,0.124,-0.396,-0.910,-0.52,0.04
2022-07-08 17:33:58.67+0000,0.124,-0.396,-0.910,-0.52,0.04
2022-07-08 17:33:59.67+0000,0.124,-0.396,-0.910,-0.52,0.04
2022-07-08 17:34:00.67+0000,0.124,-0.396,-0.910,-0.52,0.04
2022-07-08 17:34:01.67+0000,0.124,-0.396,-0.910,-0.52,0.04
2022-07-08 17:34:02.67+0000,0.124,-0.396,-0.910,-0.52,0.04
2022-07-08 17:34:03.66+0000,0.124,-0.396,-0.910,-0.52,0.04
2022-07-08 17:34:04.67+0000,0.124,-0.395,-0.910,-0.52,0.04
2022-07-08 17:34:05.66+0000,0.124,-0.396,-0.910,-0.52,0.04
2022-07-08 17:34:06.67+0000,0.124,-0.396,-0.910,-0.52,0.04
2022-07-08 17:34:07.67+0000,0.124,-0.396,-0.910,-0.52,0.04
2022-07-08 17:34:08.67+0000,0.124,-0.396,-0.910,-0.52,0.04
2022-07-08 17:34:09.66+0000,0.124,-0.396,-0.910,-0.52,0.04
2022-07-08 17:34:10.66+0000,0.124,-0.396,-0.910,-0.52,-0.04
2022-07-08 17:34:11.67+0000,0.124,-0.396,-0.910,-0.52,0.04
2022-07-08 17:34:12.67+0000,0.124,-0.396,-0.910,-0.52,-0.04
2022-07-08 17:34:13.67+0000,0.124,-0.396,-0.910,-0.52,0.04
2022-07-08 17:34:14.67+0000,0.124,-0.396,-0.910,-0.52,0.04
2022-07-08 17:34:15.67+0000,0.154,-0.383,-0.911,-0.52,-0.13
2022-07-08 17:34:16.67+0000,0.233,-0.331,-0.915,-0.78,0.04
2022-07-08 17:34:17.66+0000,0.281,-0.280,-0.918,-0.86,0.04
2022-07-08 17:34:18.66+0000,0.317,-0.222,-0.922,-0.69,0.04
2022-07-08 17:34:19.66+0000,0.326,-0.204,-0.923,-0.86,-0.37
2022-07-08 17:34:20.67+0000,0.326,-0.204,-0.923,-0.86,0.37
2022-07-08 17:34:21.67+0000,0.326,-0.204,-0.923,-0.86,-0.13
2022-07-08 17:34:22.67+0000,0.325,-0.204,-0.923,-0.86,0.04
2022-07-08 17:34:23.67+0000,0.326,-0.204,-0.923,-0.86,0.04
2022-07-08 17:34:24.66+0000,0.326,-0.204,-0.923,-0.86,0.04
2022-07-08 17:34:25.66+0000,0.325,-0.204,-0.923,-0.86,0.04
2022-07-08 17:34:26.66+0000,0.326,-0.204,-0.923,-0.78,0.04
2022-07-08 17:34:27.67+0000,0.326,-0.204,-0.923,-0.86,0.04
2022-07-08 17:34:28.67+0000,0.325,-0.204,-0.923,-0.86,0.04
2022-07-08 17:34:29.67+0000,0.325,-0.205,-0.923,-0.86,0.04
2022-07-08 17:34:30.67+0000,0.325,-0.204,-0.923,-0.86,0.04
2022-07-08 17:34:31.66+0000,0.325,-0.204,-0.923,-0.86,0.04
2022-07-08 17:34:32.67+0000,0.325,-0.204,-0.923,-0.86,0.04
2022-07-08 17:34:33.66+0000,0.325,-0.204,-0.923,-0.86,0.04
2022-07-08 17:34:34.66+0000,0.325,-0.204,-0.923,-0.86,0.04
2022-07-08 17:34:35.67+0000,0.325,-0.204,-0.923,-0.86,0.04
2022-07-08 17:34:36.67+0000,0.325,-0.204,-0.923,-0.86,0.04
2022-07-08 17:34:37.67+0000,0.325,-0.204,-0.923,-0.86,0.04
2022-07-08 17:34:38.67+0000,0.326,-0.204,-0.923,-0.86,0.04
2022-07-08 17:34:39.66+0000,0.325,-0.204,-0.923,-0.86,0.04
2022-07-08 17:34:40.67+0000,0.325,-0.204,-0.923,-0.86,0.04
2022-07-08 17:34:41.67+0000,0.325,-0.204,-0.923,-0.86,0.04
2022-07-08 17:34:42.67+0000,0.325,-0.204,-0.923,-0.86,0.05
2022-07-08 17:34:43.67+0000,0.325,-0.204,-0.923,-0.86,0.04
2022-07-08 17:34:44.67+0000,0.326,-0.204,-0.923,-0.86,0.04
2022-07-08 17:34:45.67+0000,0.325,-0.204,-0.923,-0.86,0.04
2022-07-08 17:34:46.67+0000,0.325,-0.204,-0.923,-0.86,0.04
2022-07-08 17:34:47.66+0000,0.326,-0.204,-0.923,-0.86,-0.04
2022-07-08 17:34:48.66+0000,0.325,-0.204,-0.923,-0.86,0.04
2022-07-08 17:34:49.66+0000,0.326,-0.204,-0.923,-0.86,0.04
2022-07-08 17:34:50.68+0000,0.325,-0.204,-0.923,-0.86,0.04
2022-07-08 17:34:51.67+0000,0.326,-0.204,-0.923,-0.86,0.04
2022-07-08 17:34:52.67+0000,0.325,-0.204,-0.923,-0.86,0.04
2022-07-08 17:34:53.67+0000,0.326,-0.204,-0.923,-0.86,-0.04
2022-07-08 17:34:54.67+0000,0.326,-0.204,-0.923,-0.86,0.04
2022-07-08 17:34:55.67+0000,0.326,-0.204,-0.923,-0.78,0.04
2022-07-08 17:34:56.67+0000,0.325,-0.204,-0.923,-0.86,0.04
2022-07-08 17:34:57.67+0000,0.326,-0.204,-0.923,-0.86,0.04
2022-07-08 17:34:58.67+0000,0.325,-0.204,-0.923,-0.86,0.04
2022-07-08 17:34:59.67+0000,0.336,-0.177,-0.925,-0.86,-0.29
2022-07-08 17:35:00.67+0000,0.354,-0.070,-0.932,-0.86,0.04
2022-07-08 17:35:01.67+0000,0.336,0.046,-0.941,-1.20,0.04
2022-07-08 17:35:02.67+0000,0.326,0.072,-0.943,-0.86,-0.29
2022-07-08 17:35:03.66+0000,0.326,0.072,-0.943,-0.86,0.04
2022-07-08 17:35:04.67+0000,0.326,0.072,-0.943,-0.78,0.04
2022-07-08 17:35:05.67+0000,0.327,0.072,-0.943,-0.86,-0.29
2022-07-08 17:35:06.67+0000,0.326,0.072,-0.943,-0.95,-0.29
2022-07-08 17:35:07.67+0000,0.326,0.071,-0.943,-0.86,-0.29
2022-07-08 17:35:08.67+0000,0.326,0.072,-0.943,-0.95,-0.21
2022-07-08 17:35:09.67+0000,0.326,0.072,-0.943,-0.86,0.04
2022-07-08 17:35:10.67+0000,0.326,0.072,-0.943,-0.86,0.04
2022-07-08 17:35:11.67+0000,0.326,0.072,-0.943,-0.86,-0.04
2022-07-08 17:35:12.67+0000,0.327,0.072,-0.942,-0.86,-0.29
2022-07-08 17:35:13.67+0000,0.327,0.072,-0.943,-0.86,-0.29
2022-07-08 17:35:14.67+0000,0.326,0.072,-0.943,-0.86,-0.04
2022-07-08 17:35:15.67+0000,0.326,0.072,-0.943,-0.86,-0.29
2022-07-08 17:35:16.67+0000,0.326,0.072,-0.943,-0.86,0.04
2022-07-08 17:35:17.67+0000,0.326,0.072,-0.943,-0.86,-0.13
2022-07-08 17:35:18.67+0000,0.326,0.072,-0.943,-0.86,0.04
2022-07-08 17:35:19.67+0000,0.327,0.072,-0.943,-0.86,0.04
2022-07-08 17:35:20.67+0000,0.298,0.126,-0.946,-1.12,-0.29
2022-07-08 17:35:21.66+0000,0.201,0.231,-0.952,-0.86,0.04
2022-07-08 17:35:22.67+0000,0.133,0.270,-0.954,-0.69,0.04
2022-07-08 17:35:23.67+0000,0.127,0.272,-0.954,-0.86,-0.29
2022-07-08 17:35:24.67+0000,0.127,0.272,-0.954,-0.86,-0.29
2022-07-08 17:35:25.67+0000,0.127,0.272,-0.954,-0.86,-0.29
2022-07-08 17:35:26.67+0000,0.127,0.272,-0.954,-0.86,-0.29
2022-07-08 17:35:27.67+0000,0.127,0.272,-0.954,-0.86,-0.29
2022-07-08 17:35:28.67+0000,0.127,0.272,-0.954,-0.86,-0.29
2022-07-08 17:35:29.67+0000,0.127,0.272,-0.954,-0.86,-0.29
2022-07-08 17:35:30.67+0000,0.127,0.272,-0.954,-0.86,-0.29
2022-07-08 17:35:31.67+0000,0.127,0.272,-0.954,-0.86,-0.29
2022-07-08 17:35:32.67+0000,0.127,0.272,-0.954,-0.86,-0.29
2022-07-08 17:35:33.67+0000,0.127,0.272,-0.954,-0.86,-0.29
2022-07-08 17:35:34.67+0000,0.127,0.272,-0.954,-0.86,-0.29
2022-07-08 17:35:35.67+0000,0.127,0.272,-0.954,-0.86,-0.37
2022-07-08 17:35:36.67+0000,0.127,0.272,-0.954,-0.86,-0.29
2022-07-08 17:35:37.67+0000,0.127,0.272,-0.954,-0.86,-0.29
2022-07-08 17:35:38.67+0000,0.127,0.272,-0.954,-0.86,-0.29
2022-07-08 17:35:39.67+0000,0.127,0.272,-0.954,-0.86,-0.29
2022-07-08 17:35:40.67+0000,0.127,0.272,-0.954,-0.86,-0.29
2022-07-08 17:35:41.67+0000,0.127,0.272,-0.954,-0.86,-0.29
2022-07-08 17:35:42.67+0000,0.127,0.272,-0.954,-0.86,-0.29
2022-07-08 17:35:43.67+0000,0.127,0.272,-0.954,-0.86,-0.37
2022-07-08 17:35:44.67+0000,0.127,0.272,-0.954,-0.86,-0.29
2022-07-08 17:35:45.67+0000,0.127,0.272,-0.954,-0.86,-0.29
2022-07-08 17:35:46.67+0000,0.127,0.272,-0.954,-0.86,-0.29
2022-07-08 17:35:47.67+0000,0.127,0.272,-0.954,-0.86,-0.29
2022-07-08 17:35:48.67+0000,0.127,0.272,-0.954,-0.86,-0.29
2022-07-08 17:35:49.67+0000,0.127,0.272,-0.954,-0.86,-0.29
2022-07-08 17:35:50.67+0000,0.127,0.272,-0.954,-0.78,-0.37
2022-07-08 17:35:51.67+0000,0.127,0.272,-0.954,-0.86,-0.29
2022-07-08 17:35:52.67+0000,0.127,0.271,-0.954,-0.78,-0.29
2022-07-08 17:35:53.67+0000,0.127,0.272,-0.954,-0.86,-0.29
2022-07-08 17:35:54.67+0000,0.127,0.272,-0.954,-0.86,-0.29
2022-07-08 17:35:55.67+0000,0.127,0.272,-0.954,-0.86,-0.29
2022-07-08 17:35:56.68+0000,0.127,0.272,-0.954,-0.86,-0.29
2022-07-08 17:35:57.67+0000,0.127,0.272,-0.954,-0.86,-0.29
2022-07-08 17:35:58.67+0000,0.127,0.272,-0.954,-0.86,-0.29
2022-07-08 17:35:59.67+0000,0.127,0.272,-0.954,-0.86,-0.29
2022-07-08 17:36:00.67+0000,0.054,0.294,-0.954,-0.95,-0.29
2022-07-08 17:36:01.67+0000,-0.061,0.300,-0.952,-0.86,-0.29
2022-07-08 17:36:02.67+0000,-0.152,0.280,-0.948,-0.86,-0.37
2022-07-08 17:36:03.67+0000,-0.154,0.279,-0.948,-0.52,-0.29
2022-07-08 17:36:04.67+0000,-0.154,0.279,-0.948,-0.69,-0.21
2022-07-08 17:36:05.67+0000,-0.154,0.279,-0.948,-0.52,-0.29
2022-07-08 17:36:06.67+0000,-0.154,0.279,-0.948,-0.69,-0.29
2022-07-08 17:36:07.67+0000,-0.154,0.279,-0.948,-0.69,-0.29
2022-07-08 17:36:08.67+0000,-0.154,0.279,-0.948,-0.86,-0.29
2022-07-08 17:36:09.67+0000,-0.154,0.279,-0.948,-0.86,-0.29
2022-07-08 17:36:10.67+0000,-0.154,0.279,-0.948,-0.86,-0.46
2022-07-08 17:36:11.68+0000,-0.154,0.279,-0.948,-0.86,-0.29
2022-07-08 17:36:12.67+0000,-0.154,0.279,-0.948,-0.86,-0.46
2022-07-08 17:36:13.67+0000,-0.154,0.279,-0.948,-0.86,-0.29
2022-07-08 17:36:14.67+0000,-0.153,0.279,-0.948,-0.86,-0.29
2022-07-08 17:36:15.67+0000,-0.153,0.279,-0.948,-0.86,-0.29
2022-07-08 17:36:16.67+0000,-0.154,0.279,-0.948,-0.86,-0.37
2022-07-08 17:36:17.67+0000,-0.154,0.279,-0.948,-0.86,-0.29
2022-07-08 17:36:18.67+0000,-0.154,0.279,-0.948,-0.86,-0.29
2022-07-08 17:36:19.68+0000,-0.154,0.279,-0.948,-0.86,-0.29
2022-07-08 17:36:20.68+0000,-0.154,0.279,-0.948,-0.86,-0.29
2022-07-08 17:36:21.67+0000,-0.154,0.279,-0.948,-0.86,-0.29
2022-07-08 17:36:22.67+0000,-0.154,0.279,-0.948,-0.86,-0.29
2022-07-08 17:36:23.67+0000,-0.154,0.279,-0.948,-0.86,-0.29
2022-07-08 17:36:24.67+0000,-0.154,0.279,-0.948,-0.69,-0.37
2022-07-08 17:36:25.68+0000,-0.154,0.279,-0.948,-0.86,-0.29
2022-07-08 17:36:26.67+0000,-0.154,0.279,-0.948,-0.69,-0.63
2022-07-08 17:36:27.67+0000,-0.167,0.274,-0.947,-1.03,-0.63
