{
    "avgbias": -0.44028472900390625,
    "bias": [
        -5.5480194091796875,
        -4.069915771484375,
        1.69842529296875,
        3.00775146484375,
        2.98712158203125,
        1.37969970703125,
        0.30820465087890625,
        -3.2855453491210938
    ],
    "heading": [
        156.5,
        199.39999389648438,
        243.10000610351562,
        288.79998779296875,
        332.0,
        17.099998474121094,
        63.400001525878906,
        110.80000305175781
    ],
    "xo": 0.02373994902203462,
    "xs": 0.46932725552946736,
    "yo": 0.04576723397733228,
    "ys": 0.4600130404223342
}