2023-08-25 19:07:53.77+0000,0.149,0.327,-0.933,-1.17,1.91
2023-08-25 19:07:54.77+0000,0.149,0.327,-0.933,-0.35,1.91
2023-08-25 19:07:55.77+0000,0.149,0.327,-0.933,-0.35,1.91
2023-08-25 19:07:56.78+0000,0.148,0.327,-0.933,-0.51,1.91
2023-08-25 19:07:57.78+0000,0.149,0.327,-0.933,-0.19,1.91
2023-08-25 19:07:58.77+0000,0.149,0.327,-0.933,-0.35,1.91
2023-08-25 19:07:59.77+0000,0.149,0.327,-0.933,-0.35,1.91
2023-08-25 19:08:00.77+0000,0.148,0.327,-0.933,-0.35,1.91
2023-08-25 19:08:01.78+0000,0.148,0.327,-0.933,-0.35,1.91
2023-08-25 19:08:02.78+0000,0.148,0.327,-0.933,-0.35,1.91
2023-08-25 19:08:03.77+0000,0.148,0.327,-0.933,-0.35,1.91
2023-08-25 19:08:04.77+0000,0.148,0.327,-0.933,-0.35,1.91
2023-08-25 19:08:05.77+0000,0.148,0.327,-0.933,-0.35,1.91
2023-08-25 19:08:06.78+0000,0.148,0.327,-0.933,-0.19,1.91
2023-08-25 19:08:07.77+0000,0.149,0.327,-0.933,-0.19,1.91
2023-08-25 19:08:08.77+0000,0.148,0.327,-0.933,-0.35,1.91
2023-08-25 19:08:09.77+0000,0.149,0.327,-0.933,-0.35,1.91
2023-08-25 19:08:10.78+0000,0.149,0.327,-0.933,-0.19,1.91
2023-08-25 19:08:11.78+0000,0.149,0.327,-0.933,-0.19,1.91
2023-08-25 19:08:12.77+0000,0.149,0.327,-0.933,0.14,2.23
2023-08-25 19:08:13.77+0000,0.113,0.344,-0.932,-0.84,1.26
2023-08-25 19:08:14.77+0000,-0.092,0.369,-0.925,-0.19,1.59
2023-08-25 19:08:15.78+0000,-0.167,0.352,-0.921,-0.51,1.59
2023-08-25 19:08:16.78+0000,-0.168,0.353,-0.921,0.14,1.26
2023-08-25 19:08:17.77+0000,-0.167,0.352,-0.921,-0.35,1.10
2023-08-25 19:08:18.77+0000,-0.168,0.352,-0.921,0.14,1.26
2023-08-25 19:08:19.77+0000,-0.168,0.352,-0.921,-0.19,1.26
2023-08-25 19:08:20.78+0000,-0.168,0.352,-0.921,-0.19,1.26
2023-08-25 19:08:21.78+0000,-0.168,0.352,-0.921,0.14,1.26
2023-08-25 19:08:22.77+0000,-0.168,0.352,-0.921,-0.19,1.26
2023-08-25 19:08:23.77+0000,-0.168,0.352,-0.921,-0.03,1.26
2023-08-25 19:08:24.77+0000,-0.168,0.351,-0.921,-0.19,1.26
2023-08-25 19:08:25.78+0000,-0.167,0.352,-0.921,-0.19,1.26
2023-08-25 19:08:26.77+0000,-0.167,0.351,-0.921,-0.19,1.26
2023-08-25 19:08:27.77+0000,-0.168,0.351,-0.921,-0.19,1.26
2023-08-25 19:08:28.77+0000,-0.168,0.351,-0.921,-0.19,1.26
2023-08-25 19:08:29.78+0000,-0.168,0.352,-0.921,-0.19,1.26
2023-08-25 19:08:30.78+0000,-0.168,0.352,-0.921,-0.19,1.26
2023-08-25 19:08:31.77+0000,-0.168,0.352,-0.921,-0.03,1.26
2023-08-25 19:08:32.77+0000,-0.168,0.352,-0.921,-0.19,1.26
2023-08-25 19:08:33.77+0000,-0.167,0.352,-0.921,-0.19,1.26
2023-08-25 19:08:34.77+0000,-0.168,0.352,-0.921,-0.19,1.26
2023-08-25 19:08:35.78+0000,-0.168,0.353,-0.921,-0.19,1.26
2023-08-25 19:08:36.77+0000,-0.168,0.352,-0.921,-0.19,1.26
2023-08-25 19:08:37.77+0000,-0.168,0.353,-0.920,-0.19,1.26
2023-08-25 19:08:38.77+0000,-0.168,0.353,-0.920,0.14,1.26
2023-08-25 19:08:39.77+0000,-0.167,0.354,-0.920,-0.19,1.26
2023-08-25 19:08:40.78+0000,-0.167,0.354,-0.920,-0.19,1.26
2023-08-25 19:08:41.78+0000,-0.166,0.355,-0.920,-0.19,1.26
2023-08-25 19:08:42.78+0000,-0.165,0.355,-0.920,-0.19,1.26
2023-08-25 19:08:43.77+0000,-0.165,0.355,-0.920,-0.19,1.26
2023-08-25 19:08:44.78+0000,-0.166,0.350,-0.922,-0.19,1.26
2023-08-25 19:08:45.78+0000,-0.184,0.353,-0.917,-0.19,1.26
2023-08-25 19:08:46.77+0000,-0.173,0.355,-0.919,-0.19,1.26
2023-08-25 19:08:47.77+0000,-0.170,0.354,-0.920,-0.19,1.26
2023-08-25 19:08:48.78+0000,-0.168,0.353,-0.920,-0.19,1.26
2023-08-25 19:08:49.79+0000,-0.178,0.351,-0.919,-0.19,1.26
2023-08-25 19:08:50.78+0000,-0.280,0.300,-0.912,-0.19,1.26
2023-08-25 19:08:51.77+0000,-0.374,0.200,-0.905,0.46,1.26
2023-08-25 19:08:52.77+0000,-0.404,0.146,-0.903,0.46,0.94
2023-08-25 19:08:53.77+0000,-0.399,0.155,-0.904,0.79,1.59
2023-08-25 19:08:54.78+0000,-0.399,0.155,-0.904,0.79,0.62
2023-08-25 19:08:55.78+0000,-0.398,0.155,-0.904,0.46,0.94
2023-08-25 19:08:56.77+0000,-0.399,0.155,-0.904,0.46,0.94
2023-08-25 19:08:57.77+0000,-0.399,0.155,-0.904,0.79,0.94
2023-08-25 19:08:58.77+0000,-0.399,0.155,-0.904,0.79,0.94
2023-08-25 19:08:59.78+0000,-0.398,0.155,-0.904,0.46,0.94
2023-08-25 19:09:00.77+0000,-0.398,0.155,-0.904,0.46,0.94
2023-08-25 19:09:01.77+0000,-0.398,0.155,-0.904,0.79,0.94
2023-08-25 19:09:02.77+0000,-0.397,0.157,-0.904,1.11,1.59
2023-08-25 19:09:03.77+0000,-0.353,0.225,-0.908,0.46,0.94
2023-08-25 19:09:04.78+0000,-0.192,0.344,-0.919,-0.19,1.26
2023-08-25 19:09:05.78+0000,-0.052,0.372,-0.927,-0.35,1.59
2023-08-25 19:09:06.77+0000,0.154,0.326,-0.933,-1.00,-0.18
2023-08-25 19:09:07.77+0000,0.150,0.327,-0.933,-0.51,2.23
2023-08-25 19:09:08.77+0000,0.149,0.327,-0.933,-0.19,1.91
2023-08-25 19:09:09.78+0000,0.150,0.327,-0.933,-0.51,1.59
2023-08-25 19:09:10.77+0000,0.149,0.327,-0.933,-0.19,1.75
2023-08-25 19:09:11.77+0000,0.149,0.327,-0.933,-0.51,1.91
2023-08-25 19:09:12.77+0000,0.149,0.327,-0.933,-0.51,2.23
2023-08-25 19:09:13.77+0000,0.149,0.327,-0.933,-0.51,2.23
2023-08-25 19:09:14.78+0000,0.149,0.327,-0.933,-0.19,1.91
2023-08-25 19:09:15.77+0000,0.149,0.327,-0.933,-0.19,1.91
2023-08-25 19:09:16.77+0000,0.149,0.327,-0.933,-0.35,1.91
2023-08-25 19:09:17.78+0000,0.149,0.327,-0.933,-0.35,1.99
2023-08-25 19:09:18.78+0000,0.149,0.327,-0.933,-0.35,1.91
2023-08-25 19:09:19.78+0000,0.149,0.327,-0.933,-0.19,1.91
2023-08-25 19:09:20.77+0000,0.149,0.327,-0.933,-0.51,1.91
2023-08-25 19:09:21.77+0000,0.149,0.327,-0.933,-0.19,1.91
2023-08-25 19:09:22.77+0000,0.149,0.327,-0.933,-0.35,1.91
2023-08-25 19:09:23.78+0000,0.149,0.327,-0.933,-0.51,1.91
2023-08-25 19:09:24.78+0000,0.149,0.327,-0.933,-0.51,1.91
2023-08-25 19:09:25.78+0000,0.149,0.327,-0.933,-0.19,1.91
2023-08-25 19:09:26.77+0000,0.149,0.327,-0.933,-0.35,1.91
2023-08-25 19:09:27.77+0000,0.149,0.327,-0.933,-0.19,1.91
2023-08-25 19:09:28.78+0000,0.149,0.327,-0.933,-0.35,1.91
2023-08-25 19:09:29.79+0000,0.149,0.327,-0.933,-0.19,1.91
2023-08-25 19:09:30.77+0000,0.149,0.327,-0.933,-0.51,1.91
2023-08-25 19:09:31.77+0000,0.149,0.327,-0.933,-0.51,1.91
2023-08-25 19:09:32.77+0000,0.149,0.327,-0.933,-0.19,1.91
2023-08-25 19:09:33.78+0000,0.149,0.327,-0.933,-0.35,1.91
2023-08-25 19:09:34.78+0000,0.149,0.328,-0.933,-0.19,1.91
2023-08-25 19:09:35.77+0000,0.149,0.327,-0.933,-0.19,1.91
2023-08-25 19:09:36.77+0000,0.149,0.327,-0.933,-0.19,1.91
2023-08-25 19:09:37.77+0000,0.149,0.327,-0.933,-0.51,1.91
2023-08-25 19:09:38.78+0000,0.149,0.327,-0.933,-0.35,1.91
2023-08-25 19:09:39.78+0000,0.149,0.327,-0.933,-0.35,1.91
2023-08-25 19:09:40.77+0000,0.149,0.327,-0.933,-0.35,1.91
2023-08-25 19:09:41.77+0000,0.149,0.327,-0.933,-0.35,1.91
2023-08-25 19:09:42.77+0000,0.149,0.327,-0.933,-0.19,1.91
2023-08-25 19:09:43.78+0000,0.149,0.327,-0.933,-0.35,1.91
2023-08-25 19:09:44.78+0000,0.149,0.327,-0.933,-0.19,1.91
2023-08-25 19:09:45.77+0000,0.149,0.327,-0.933,-0.51,1.91
2023-08-25 19:09:46.77+0000,0.149,0.327,-0.933,-0.51,1.91
2023-08-25 19:09:47.77+0000,0.149,0.327,-0.933,-0.51,1.91
2023-08-25 19:09:48.78+0000,0.149,0.327,-0.933,-0.35,1.91
2023-08-25 19:09:49.78+0000,0.149,0.327,-0.933,-0.35,1.91
2023-08-25 19:09:50.77+0000,0.149,0.327,-0.933,-0.35,1.91
2023-08-25 19:09:51.77+0000,0.150,0.328,-0.933,-0.19,1.91
2023-08-25 19:09:52.77+0000,0.150,0.328,-0.933,-0.51,2.07
2023-08-25 19:09:53.78+0000,0.207,0.292,-0.934,-0.35,2.07
2023-08-25 19:09:54.78+0000,0.332,0.149,-0.931,-0.19,2.23
2023-08-25 19:09:55.77+0000,0.363,0.075,-0.929,0.14,2.87
2023-08-25 19:09:56.77+0000,0.362,0.081,-0.929,-0.03,2.71
2023-08-25 19:09:57.77+0000,0.361,0.081,-0.929,0.14,3.20
2023-08-25 19:09:58.78+0000,0.361,0.081,-0.929,0.14,2.55
2023-08-25 19:09:59.78+0000,0.361,0.081,-0.929,-0.03,2.55
2023-08-25 19:10:00.77+0000,0.361,0.081,-0.929,-0.19,2.55
2023-08-25 19:10:01.77+0000,0.361,0.081,-0.929,0.14,2.55
2023-08-25 19:10:02.77+0000,0.361,0.081,-0.929,0.14,2.55
2023-08-25 19:10:03.78+0000,0.361,0.081,-0.929,-0.19,2.55
2023-08-25 19:10:04.78+0000,0.361,0.081,-0.929,-0.03,2.71
2023-08-25 19:10:05.77+0000,0.361,0.081,-0.929,0.14,2.55
2023-08-25 19:10:06.77+0000,0.361,0.081,-0.929,0.14,2.55
2023-08-25 19:10:07.77+0000,0.361,0.081,-0.929,-0.03,2.55
2023-08-25 19:10:08.79+0000,0.361,0.081,-0.929,0.14,2.55
2023-08-25 19:10:09.78+0000,0.361,0.081,-0.929,0.14,2.55
2023-08-25 19:10:10.78+0000,0.361,0.081,-0.929,0.14,2.55
2023-08-25 19:10:11.77+0000,0.361,0.081,-0.929,-0.03,2.55
2023-08-25 19:10:12.77+0000,0.361,0.081,-0.929,0.14,2.55
2023-08-25 19:10:13.77+0000,0.361,0.081,-0.929,0.14,2.55
2023-08-25 19:10:14.78+0000,0.361,0.081,-0.929,0.14,2.55
2023-08-25 19:10:15.78+0000,0.361,0.081,-0.929,-0.03,2.55
2023-08-25 19:10:16.78+0000,0.361,0.081,-0.929,0.14,2.55
2023-08-25 19:10:17.77+0000,0.361,0.082,-0.929,0.14,2.55
2023-08-25 19:10:18.77+0000,0.374,0.031,-0.927,-0.19,2.87
2023-08-25 19:10:19.77+0000,0.370,-0.141,-0.918,0.46,2.87
2023-08-25 19:10:20.77+0000,0.338,-0.226,-0.914,0.46,2.87
2023-08-25 19:10:21.78+0000,0.333,-0.234,-0.913,0.79,2.87
2023-08-25 19:10:22.79+0000,0.333,-0.234,-0.914,0.46,2.87
2023-08-25 19:10:23.77+0000,0.332,-0.234,-0.914,0.79,2.87
2023-08-25 19:10:24.77+0000,0.332,-0.234,-0.914,0.79,2.87
2023-08-25 19:10:25.77+0000,0.332,-0.234,-0.914,0.62,2.87
2023-08-25 19:10:26.77+0000,0.332,-0.233,-0.914,0.46,2.87
2023-08-25 19:10:27.78+0000,0.332,-0.233,-0.914,0.79,2.87
2023-08-25 19:10:28.78+0000,0.332,-0.234,-0.914,0.79,2.87
2023-08-25 19:10:29.77+0000,0.332,-0.234,-0.914,0.62,2.87
2023-08-25 19:10:30.78+0000,0.332,-0.234,-0.914,0.79,2.87
2023-08-25 19:10:31.77+0000,0.333,-0.233,-0.914,0.79,2.87
2023-08-25 19:10:32.77+0000,0.332,-0.234,-0.914,0.79,2.87
2023-08-25 19:10:33.77+0000,0.333,-0.233,-0.914,0.79,2.87
2023-08-25 19:10:34.78+0000,0.332,-0.234,-0.914,0.62,2.87
2023-08-25 19:10:35.78+0000,0.332,-0.234,-0.914,0.79,2.87
2023-08-25 19:10:36.77+0000,0.332,-0.233,-0.914,0.79,2.87
2023-08-25 19:10:37.77+0000,0.332,-0.233,-0.914,0.79,2.87
2023-08-25 19:10:38.77+0000,0.332,-0.234,-0.914,0.79,2.87
2023-08-25 19:10:39.77+0000,0.332,-0.234,-0.914,0.79,2.87
2023-08-25 19:10:40.78+0000,0.332,-0.234,-0.914,0.79,2.87
2023-08-25 19:10:41.78+0000,0.332,-0.234,-0.914,0.62,2.87
2023-08-25 19:10:42.78+0000,0.332,-0.234,-0.914,0.46,2.87
2023-08-25 19:10:43.77+0000,0.332,-0.234,-0.914,0.79,2.87
2023-08-25 19:10:44.77+0000,0.332,-0.233,-0.914,0.79,2.87
2023-08-25 19:10:45.77+0000,0.333,-0.234,-0.914,0.79,2.87
2023-08-25 19:10:46.77+0000,0.332,-0.234,-0.914,0.79,2.87
2023-08-25 19:10:47.78+0000,0.332,-0.234,-0.914,0.79,2.87
2023-08-25 19:10:48.77+0000,0.332,-0.234,-0.914,0.79,2.87
2023-08-25 19:10:49.77+0000,0.332,-0.234,-0.914,0.79,2.87
2023-08-25 19:10:50.77+0000,0.332,-0.234,-0.914,0.79,2.87
2023-08-25 19:10:51.77+0000,0.332,-0.234,-0.914,0.79,2.87
2023-08-25 19:10:52.77+0000,0.332,-0.233,-0.914,0.79,2.87
2023-08-25 19:10:53.78+0000,0.332,-0.234,-0.914,0.79,2.87
2023-08-25 19:10:54.78+0000,0.332,-0.234,-0.914,0.62,2.87
2023-08-25 19:10:55.78+0000,0.333,-0.234,-0.914,0.79,2.87
2023-08-25 19:10:56.77+0000,0.306,-0.277,-0.911,0.79,2.87
2023-08-25 19:10:57.79+0000,0.192,-0.380,-0.905,0.95,2.55
2023-08-25 19:10:58.77+0000,0.086,-0.424,-0.901,1.27,2.23
2023-08-25 19:10:59.77+0000,0.088,-0.423,-0.902,1.43,2.23
2023-08-25 19:11:00.78+0000,0.089,-0.423,-0.902,1.27,1.91
2023-08-25 19:11:01.78+0000,0.090,-0.422,-0.902,1.11,2.87
2023-08-25 19:11:02.78+0000,0.089,-0.422,-0.902,1.43,2.23
2023-08-25 19:11:03.77+0000,0.089,-0.422,-0.902,1.43,2.55
2023-08-25 19:11:04.77+0000,0.089,-0.422,-0.902,1.43,2.55
2023-08-25 19:11:05.77+0000,0.089,-0.422,-0.902,1.43,2.55
2023-08-25 19:11:06.78+0000,0.089,-0.422,-0.902,1.43,2.55
2023-08-25 19:11:07.78+0000,0.089,-0.422,-0.902,1.43,2.55
2023-08-25 19:11:08.78+0000,0.089,-0.422,-0.902,1.43,2.55
2023-08-25 19:11:09.78+0000,0.089,-0.422,-0.902,1.43,2.55
2023-08-25 19:11:10.77+0000,0.089,-0.422,-0.902,1.27,2.55
2023-08-25 19:11:11.77+0000,0.089,-0.422,-0.902,1.43,2.55
2023-08-25 19:11:12.79+0000,0.089,-0.422,-0.902,1.43,2.55
2023-08-25 19:11:13.78+0000,0.089,-0.422,-0.902,1.43,2.55
2023-08-25 19:11:14.78+0000,0.089,-0.422,-0.902,1.43,2.55
2023-08-25 19:11:15.77+0000,0.089,-0.422,-0.902,1.43,2.55
2023-08-25 19:11:16.77+0000,0.089,-0.422,-0.902,1.43,2.55
2023-08-25 19:11:17.77+0000,0.090,-0.422,-0.902,1.43,2.55
2023-08-25 19:11:18.78+0000,0.089,-0.422,-0.902,1.43,2.55
2023-08-25 19:11:19.78+0000,0.089,-0.423,-0.902,1.43,2.63
2023-08-25 19:11:20.78+0000,0.089,-0.422,-0.902,1.43,2.55
2023-08-25 19:11:21.77+0000,0.089,-0.422,-0.902,1.43,2.55
2023-08-25 19:11:22.78+0000,0.089,-0.422,-0.902,1.43,2.55
2023-08-25 19:11:23.77+0000,0.089,-0.422,-0.902,1.43,2.55
2023-08-25 19:11:24.78+0000,0.089,-0.422,-0.902,1.27,2.55
2023-08-25 19:11:25.78+0000,0.089,-0.422,-0.902,1.43,2.55
2023-08-25 19:11:26.77+0000,0.090,-0.422,-0.902,1.27,2.55
2023-08-25 19:11:27.77+0000,0.089,-0.422,-0.902,1.43,2.55
2023-08-25 19:11:28.77+0000,0.089,-0.422,-0.902,1.43,2.55
2023-08-25 19:11:29.78+0000,0.089,-0.423,-0.902,1.43,2.55
2023-08-25 19:11:30.78+0000,0.071,-0.427,-0.901,1.43,2.55
2023-08-25 19:11:31.78+0000,-0.044,-0.436,-0.899,1.43,2.23
2023-08-25 19:11:32.77+0000,-0.196,-0.398,-0.896,1.27,1.59
2023-08-25 19:11:33.77+0000,-0.224,-0.384,-0.896,1.43,1.91
2023-08-25 19:11:34.78+0000,-0.223,-0.384,-0.896,1.60,1.91
2023-08-25 19:11:35.78+0000,-0.223,-0.384,-0.896,1.60,1.91
2023-08-25 19:11:36.77+0000,-0.223,-0.384,-0.896,1.76,1.91
2023-08-25 19:11:37.77+0000,-0.222,-0.384,-0.896,1.43,1.91
2023-08-25 19:11:38.77+0000,-0.222,-0.384,-0.896,1.60,1.91
2023-08-25 19:11:39.78+0000,-0.222,-0.384,-0.896,1.60,1.91
2023-08-25 19:11:40.78+0000,-0.223,-0.384,-0.896,1.43,1.91
2023-08-25 19:11:41.78+0000,-0.222,-0.384,-0.896,1.43,1.91
2023-08-25 19:11:42.77+0000,-0.223,-0.384,-0.896,1.43,1.91
2023-08-25 19:11:43.77+0000,-0.222,-0.384,-0.896,1.43,1.91
2023-08-25 19:11:44.78+0000,-0.223,-0.384,-0.896,1.43,1.91
2023-08-25 19:11:45.78+0000,-0.222,-0.384,-0.896,1.43,1.91
2023-08-25 19:11:46.78+0000,-0.222,-0.384,-0.896,1.60,1.91
2023-08-25 19:11:47.77+0000,-0.223,-0.384,-0.896,1.43,1.91
2023-08-25 19:11:48.77+0000,-0.223,-0.384,-0.896,1.60,1.91
2023-08-25 19:11:49.78+0000,-0.222,-0.384,-0.896,1.43,1.91
2023-08-25 19:11:50.79+0000,-0.223,-0.384,-0.896,1.60,1.91
2023-08-25 19:11:51.78+0000,-0.222,-0.384,-0.896,1.43,1.91
2023-08-25 19:11:52.77+0000,-0.222,-0.384,-0.896,1.60,1.91
2023-08-25 19:11:53.77+0000,-0.222,-0.384,-0.896,1.43,1.91
2023-08-25 19:11:54.77+0000,-0.222,-0.384,-0.896,1.60,1.91
2023-08-25 19:11:55.78+0000,-0.222,-0.384,-0.896,1.60,1.91
2023-08-25 19:11:56.77+0000,-0.222,-0.384,-0.896,1.43,1.91
2023-08-25 19:11:57.77+0000,-0.223,-0.384,-0.896,1.60,1.91
2023-08-25 19:11:58.77+0000,-0.223,-0.384,-0.896,1.43,1.91
2023-08-25 19:11:59.78+0000,-0.223,-0.384,-0.896,1.43,1.91
2023-08-25 19:12:00.78+0000,-0.223,-0.384,-0.896,1.43,1.91
2023-08-25 19:12:01.78+0000,-0.224,-0.384,-0.896,1.43,1.91
2023-08-25 19:12:02.77+0000,-0.287,-0.340,-0.895,1.76,1.91
2023-08-25 19:12:03.77+0000,-0.392,-0.213,-0.895,1.11,1.59
2023-08-25 19:12:04.78+0000,-0.421,-0.145,-0.895,1.43,2.23
2023-08-25 19:12:05.78+0000,-0.421,-0.146,-0.895,1.43,0.62
2023-08-25 19:12:06.78+0000,-0.420,-0.145,-0.896,1.11,1.26
2023-08-25 19:12:07.77+0000,-0.420,-0.145,-0.896,1.11,1.59
2023-08-25 19:12:08.77+0000,-0.420,-0.145,-0.896,1.43,0.94
2023-08-25 19:12:09.79+0000,-0.420,-0.145,-0.896,1.11,0.94
2023-08-25 19:12:10.78+0000,-0.420,-0.145,-0.896,1.11,1.26
2023-08-25 19:12:11.77+0000,-0.420,-0.146,-0.896,1.27,1.26
2023-08-25 19:12:12.77+0000,-0.420,-0.145,-0.896,1.11,1.26
2023-08-25 19:12:13.77+0000,-0.420,-0.145,-0.896,1.11,1.26
2023-08-25 19:12:14.78+0000,-0.420,-0.145,-0.896,1.11,1.26
2023-08-25 19:12:15.78+0000,-0.420,-0.145,-0.896,1.27,1.26
2023-08-25 19:12:16.77+0000,-0.420,-0.145,-0.896,1.11,1.26
2023-08-25 19:12:17.77+0000,-0.420,-0.146,-0.896,1.11,1.10
2023-08-25 19:12:18.78+0000,-0.420,-0.145,-0.896,1.11,1.26
2023-08-25 19:12:19.78+0000,-0.420,-0.145,-0.896,1.11,1.26
2023-08-25 19:12:20.78+0000,-0.420,-0.145,-0.896,1.11,1.26
2023-08-25 19:12:21.77+0000,-0.421,-0.145,-0.895,1.27,1.26
2023-08-25 19:12:22.77+0000,-0.428,-0.121,-0.896,1.43,1.59
2023-08-25 19:12:23.78+0000,-0.437,0.032,-0.899,0.79,0.94
2023-08-25 19:12:24.78+0000,-0.401,0.151,-0.904,0.46,0.78
2023-08-25 19:12:25.78+0000,-0.399,0.154,-0.904,0.46,1.26
2023-08-25 19:12:26.77+0000,-0.400,0.154,-0.904,0.79,0.94
2023-08-25 19:12:27.78+0000,-0.399,0.153,-0.904,0.46,0.94
2023-08-25 19:12:28.78+0000,-0.399,0.153,-0.904,0.46,0.94
2023-08-25 19:12:29.78+0000,-0.399,0.153,-0.904,0.62,0.94
2023-08-25 19:12:30.77+0000,-0.399,0.153,-0.904,0.46,0.94
2023-08-25 19:12:31.78+0000,-0.399,0.153,-0.904,0.46,0.94
2023-08-25 19:12:32.77+0000,-0.399,0.153,-0.904,0.62,0.94
2023-08-25 19:12:33.78+0000,-0.399,0.153,-0.904,0.46,0.94
2023-08-25 19:12:34.78+0000,-0.399,0.153,-0.904,0.46,0.94
2023-08-25 19:12:35.77+0000,-0.399,0.153,-0.904,0.46,0.94
2023-08-25 19:12:36.8+0000,-0.399,0.153,-0.904,0.46,0.94
2023-08-25 19:12:37.77+0000,-0.399,0.153,-0.904,0.46,0.94
2023-08-25 19:12:38.78+0000,-0.399,0.153,-0.904,0.62,0.94
2023-08-25 19:12:39.78+0000,-0.399,0.153,-0.904,0.46,0.94
2023-08-25 19:12:40.77+0000,-0.399,0.153,-0.904,0.46,0.94
2023-08-25 19:12:41.77+0000,-0.399,0.153,-0.904,0.46,0.94
2023-08-25 19:12:42.78+0000,-0.399,0.153,-0.904,0.46,0.94
2023-08-25 19:12:43.78+0000,-0.399,0.153,-0.904,0.46,0.94
2023-08-25 19:12:44.78+0000,-0.399,0.153,-0.904,0.46,0.94
2023-08-25 19:12:45.77+0000,-0.399,0.154,-0.904,0.46,0.94
2023-08-25 19:12:46.77+0000,-0.400,0.154,-0.904,0.46,0.94
2023-08-25 19:12:47.78+0000,-0.396,0.163,-0.904,0.79,1.59
2023-08-25 19:12:48.78+0000,-0.289,0.289,-0.913,-0.19,1.10
2023-08-25 19:12:49.78+0000,-0.203,0.340,-0.918,-0.03,1.59
2023-08-25 19:12:50.77+0000,-0.163,0.354,-0.921,-0.19,0.94
2023-08-25 19:12:51.77+0000,-0.168,0.353,-0.920,0.14,1.59
2023-08-25 19:12:52.78+0000,-0.168,0.352,-0.921,-0.19,1.10
2023-08-25 19:12:53.78+0000,-0.168,0.352,-0.921,-0.19,1.26
2023-08-25 19:12:54.78+0000,-0.168,0.352,-0.921,-0.19,1.26
2023-08-25 19:12:55.77+0000,-0.168,0.352,-0.921,-0.19,1.42
2023-08-25 19:12:56.77+0000,-0.168,0.352,-0.921,-0.03,1.26
2023-08-25 19:12:57.78+0000,-0.168,0.352,-0.921,-0.19,1.26
2023-08-25 19:12:58.78+0000,-0.168,0.352,-0.921,-0.19,1.26
2023-08-25 19:12:59.78+0000,-0.168,0.352,-0.921,-0.19,1.26
2023-08-25 19:13:00.77+0000,-0.168,0.352,-0.921,-0.19,1.26
2023-08-25 19:13:01.77+0000,-0.168,0.352,-0.921,-0.19,1.26
2023-08-25 19:13:02.77+0000,-0.168,0.352,-0.921,-0.19,1.26
2023-08-25 19:13:03.78+0000,-0.168,0.352,-0.921,-0.19,1.26
2023-08-25 19:13:04.78+0000,-0.168,0.352,-0.921,-0.19,1.26
2023-08-25 19:13:05.77+0000,-0.168,0.352,-0.921,-0.19,1.26
2023-08-25 19:13:06.77+0000,-0.168,0.352,-0.921,-0.19,1.26
